106161, 0, 0 
429926, 0, 0 
657222, 0, 0 
426934, 0, 0 
298767, 0, 0 
114209, 0, 0 
49024, 0, 0 
32646, 0, 0 
49680, 0, 0 
35566, 0, 0 
33792, 0, 0 
35354, 0, 0 
34284, 0, 0 
58412, 0, 0 
7908, 0, 1 
27092, 0, 1 
11367, 21, 1 
11715, 545, 0 
146, 684, 1 
23647, 8635, 0 
12816, 12487, 3 
54911, 24045, 0 
23763, 27869, 1 
24714, 25424, 0 
1763, 11877, 1 
73454, 18014, 1 
5489, 14452, 1 
0, 10063, 1 
37, 10428, 0 
3, 9061, 2 
0, 13362, 1 
0, 11050, 3 
17, 8362, 3 
0, 8089, 5 
0, 7325, 4 
0, 7742, 9 
0, 5015, 11 
0, 4928, 13 
0, 3579, 47 
0, 2989, 79 
0, 3085, 120 
0, 2903, 184 
0, 2902, 235 
0, 5121, 351 
0, 8285, 525 
0, 9091, 746 
0, 9866, 1035 
0, 10434, 1451 
0, 10714, 1948 
0, 9545, 2549 
0, 10224, 3063 
0, 7752, 3619 
0, 7107, 4338 
0, 5919, 4809 
0, 6203, 5423 
0, 5993, 6017 
0, 6221, 6104 
0, 5304, 6420 
0, 5343, 6506 
0, 4621, 6688 
0, 4476, 6416 
0, 4144, 6262 
0, 4469, 6108 
0, 4086, 5847 
0, 3277, 5494 
0, 4463, 5237 
0, 3773, 5038 
0, 3885, 4538 
0, 3874, 4392 
0, 3726, 4161 
0, 3829, 4041 
0, 3483, 3950 
0, 3131, 4073 
0, 2969, 4201 
0, 2792, 3994 
0, 2950, 3945 
0, 2949, 3931 
0, 3043, 4029 
0, 3029, 4141 
0, 2769, 4506 
0, 3053, 4498 
0, 2749, 4569 
0, 3078, 4468 
0, 2513, 4330 
0, 2950, 4284 
0, 1532, 4282 
0, 2332, 4472 
0, 1897, 4791 
0, 1696, 5170 
0, 1686, 5558 
0, 1474, 6210 
0, 1332, 6736 
0, 1337, 6904 
0, 1053, 7113 
0, 1241, 7065 
0, 1106, 7078 
0, 1062, 7116 
0, 1166, 7489 
0, 1308, 7642 
0, 1112, 8049 
0, 1360, 7948 
0, 1169, 8236 
0, 1372, 8560 
0, 1318, 8797 
0, 1446, 9433 
0, 1545, 10300 
0, 1680, 11840 
0, 1637, 13263 
0, 1620, 15595 
0, 1817, 18516 
0, 1935, 21588 
0, 1926, 23652 
0, 2241, 26249 
0, 2198, 27751 
0, 2441, 28791 
0, 2244, 29421 
0, 2775, 31486 
0, 2647, 33314 
0, 3090, 35050 
0, 2825, 38192 
0, 2962, 41531 
0, 3773, 43029 
0, 2714, 43841 
0, 4383, 45317 
0, 3528, 46968 
0, 4214, 48129 
0, 4419, 50681 
0, 3861, 52665 
0, 3764, 53641 
0, 4981, 52837 
0, 5144, 52584 
0, 4322, 51722 
0, 5715, 50584 
0, 4969, 51403 
0, 5323, 51846 
0, 5490, 51216 
0, 5517, 51116 
0, 5797, 50887 
0, 6580, 51693 
0, 6495, 53871 
0, 6311, 54827 
0, 7360, 55392 
0, 6970, 54440 
0, 8351, 52138 
0, 7429, 49471 
0, 8796, 45784 
0, 8794, 43001 
0, 8922, 40510 
0, 10780, 37637 
0, 10966, 33984 
0, 11157, 29264 
0, 11669, 23003 
0, 10826, 17490 
0, 13249, 13368 
0, 13190, 10115 
0, 13744, 7937 
0, 13453, 6375 
0, 14305, 5851 
0, 16703, 5402 
0, 16645, 5041 
0, 16509, 4946 
0, 15989, 5047 
0, 21035, 5029 
0, 17599, 5380 
0, 18333, 5900 
0, 21695, 6842 
0, 22135, 7342 
0, 21460, 8027 
0, 21052, 8003 
0, 28231, 8131 
0, 19115, 8063 
0, 29272, 8212 
0, 24278, 7601 
0, 30255, 7361 
0, 28769, 6690 
0, 30861, 5937 
0, 35388, 5527 
17, 37201, 5169 
663, 36460, 5095 
15401, 46367, 4850 
0, 46993, 4806 
0, 46203, 4628 
0, 59256, 4629 
0, 59440, 4486 
0, 62615, 4708 
0, 69734, 4967 
0, 63616, 5352 
0, 80557, 5705 
0, 80418, 6001 
0, 88143, 6525 
0, 80133, 7286 
0, 84654, 7941 
0, 79036, 8135 
0, 75035, 8144 
0, 79493, 7822 
0, 61523, 7693 
0, 47419, 7569 
0, 33971, 7569 
0, 24173, 8161 
0, 17978, 8322 
0, 9359, 8555 
0, 6693, 8637 
0, 4513, 8442 
0, 2869, 8235 
0, 2063, 8202 
0, 1745, 7802 
0, 1784, 7241 
0, 1497, 6796 
0, 1237, 6029 
0, 1442, 5529 
0, 1149, 5283 
0, 1061, 5265 
0, 1005, 5376 
0, 1036, 5086 
0, 847, 5075 
0, 1098, 4894 
0, 816, 4686 
0, 805, 4175 
0, 656, 3289 
0, 929, 2377 
0, 733, 1709 
0, 657, 1246 
0, 607, 863 
0, 538, 517 
0, 660, 326 
0, 478, 219 
0, 435, 177 
0, 485, 194 
0, 426, 196 
0, 341, 154 
0, 401, 147 
0, 354, 142 
0, 290, 113 
0, 295, 116 
0, 264, 106 
0, 276, 99 
0, 249, 107 
0, 189, 114 
0, 186, 104 
0, 208, 107 
0, 170, 82 
0, 130, 86 
0, 139, 62 
0, 133, 69 
0, 103, 52 
0, 85, 28 
0, 68, 32 
0, 100, 34 
0, 59, 22 
0, 14, 16 
0, 57, 14 
0, 113, 10 
0, 10, 11 
0, 0, 8 
0, 0, 8 
0, 319, 14 
