100672, 39965, 0 
1076, 402, 0 
3350, 10051, 0 
9510, 16280, 1 
1625, 47280, 0 
23126, 71569, 1 
129665, 40491, 0 
1928, 20713, 2 
24602, 122345, 0 
10171, 239576, 0 
9466, 221376, 0 
64807, 196867, 0 
28813, 175989, 1 
119068, 290345, 1 
52175, 190613, 1 
76646, 140173, 2 
141023, 179744, 3 
96566, 181318, 1 
90628, 178517, 2 
177263, 188615, 4 
216269, 191948, 3 
401583, 178123, 4 
259049, 167097, 7 
301123, 167435, 18 
143267, 161297, 24 
166128, 127669, 35 
304422, 146242, 38 
12938, 127386, 118 
19918, 120352, 230 
11645, 96379, 474 
623539, 107852, 960 
2244, 99028, 2242 
48208, 98036, 4686 
2224, 98961, 9190 
211159, 100691, 15457 
367084, 87081, 23673 
124078, 91422, 31847 
754, 64323, 38566 
12333, 70795, 40786 
2477, 63668, 40357 
52473, 57965, 38394 
384, 52970, 36296 
173445, 46865, 33370 
143830, 41706, 30931 
158, 40056, 26640 
1055, 37178, 21494 
148, 33621, 16560 
84, 31075, 11996 
5584, 30276, 8569 
10, 29211, 5945 
56391, 28492, 4148 
28707, 27746, 2729 
192, 27313, 1885 
2, 28352, 1460 
2, 26892, 1163 
62970, 25975, 1026 
1605, 22682, 991 
8, 23324, 1005 
0, 20039, 1125 
0, 17486, 1167 
6127, 14831, 1294 
0, 12478, 1357 
0, 11044, 1516 
67, 9471, 1696 
0, 7359, 1877 
1, 7768, 2063 
37795, 7091, 2215 
1, 6274, 2546 
14, 4916, 2703 
0, 4274, 3069 
9946, 3922, 3132 
0, 3150, 3212 
0, 2985, 3322 
1233, 2597, 3297 
50, 2416, 3410 
13928, 2450, 3570 
0, 2090, 3732 
0, 1565, 4063 
0, 1017, 4237 
351, 655, 4594 
20616, 569, 5020 
0, 568, 5594 
0, 439, 6132 
14795, 534, 6647 
0, 321, 7125 
32, 488, 7890 
0, 264, 8520 
4771, 453, 9356 
0, 325, 10413 
0, 355, 11375 
6221, 357, 12543 
0, 370, 13633 
0, 323, 14618 
355, 361, 15457 
0, 297, 16325 
54, 307, 16742 
3554, 296, 17694 
0, 265, 18029 
129, 253, 18119 
3, 241, 18315 
4, 282, 17863 
1156, 262, 17458 
7, 270, 17401 
1215, 235, 17235 
123, 232, 17333 
138, 260, 17698 
457, 253, 18146 
94, 248, 18567 
101, 233, 19419 
670, 205, 20562 
1577, 244, 21706 
789, 220, 23673 
724, 214, 25284 
821, 231, 27466 
2302, 226, 28962 
3054, 241, 30315 
5664, 214, 31842 
7221, 211, 32148 
9431, 235, 33009 
7726, 255, 33183 
11067, 233, 33586 
5469, 230, 33503 
4377, 242, 33718 
2932, 248, 33120 
1665, 292, 32479 
1494, 278, 32098 
668, 198, 32347 
205, 317, 32676 
184, 348, 34169 
117, 241, 36238 
196, 274, 38117 
38, 318, 39309 
518, 249, 39729 
223, 314, 41037 
23, 363, 43529 
80, 343, 49107 
55, 316, 56021 
5, 354, 65302 
91, 394, 74874 
8, 372, 83424 
8729, 395, 90745 
109, 466, 93469 
50, 384, 94204 
9, 457, 93168 
11, 517, 90942 
825, 562, 90579 
229, 500, 92054 
83, 552, 95191 
7, 575, 97937 
3, 563, 99610 
1893, 597, 100575 
1, 615, 101875 
44, 677, 104099 
1125, 673, 108132 
5, 679, 112177 
2473, 671, 113113 
26701, 722, 110732 
1665, 648, 104361 
20504, 824, 96458 
17973, 750, 88291 
6656, 823, 80306 
5910, 767, 71384 
1073, 831, 63759 
16975, 789, 56752 
93376, 825, 51790 
85690, 818, 49165 
19003, 824, 46930 
1453, 898, 44140 
78, 792, 40718 
27385, 947, 37347 
82761, 578, 33756 
695, 1028, 31640 
255, 822, 29252 
160444, 869, 27399 
4914, 768, 26177 
3909, 723, 25196 
259, 754, 23225 
22352, 818, 21522 
2708, 723, 19958 
499, 727, 18727 
0, 744, 18155 
0, 602, 17501 
0, 722, 17313 
0, 681, 17279 
0, 635, 17328 
0, 664, 17143 
0, 474, 16727 
0, 488, 16513 
0, 505, 15960 
0, 420, 15725 
0, 399, 15577 
0, 389, 15458 
0, 397, 15288 
0, 312, 15104 
0, 307, 14717 
0, 247, 14517 
0, 242, 14647 
0, 211, 14150 
0, 185, 14144 
0, 160, 13819 
0, 124, 13493 
0, 99, 13458 
0, 89, 13088 
0, 66, 13117 
0, 75, 12665 
0, 61, 12440 
0, 42, 12206 
0, 39, 11943 
0, 38, 11666 
0, 26, 11809 
0, 11, 11690 
0, 25, 11346 
0, 18, 10865 
0, 13, 10296 
0, 16, 9741 
0, 11, 9603 
0, 14, 9358 
0, 11, 9416 
0, 10, 9116 
0, 7, 9155 
0, 1, 8911 
0, 5, 9262 
0, 3, 9240 
0, 2, 9235 
0, 3, 9239 
0, 4, 9288 
0, 2, 9046 
0, 3, 8939 
0, 3, 8750 
0, 2, 8879 
0, 1, 9043 
0, 0, 8794 
0, 0, 8938 
0, 0, 8912 
0, 0, 8863 
0, 0, 8365 
0, 0, 7868 
0, 0, 7628 
0, 2, 7121 
0, 0, 6687 
0, 0, 6333 
0, 0, 6112 
0, 0, 5646 
0, 0, 5295 
0, 0, 5201 
0, 0, 4940 
0, 0, 4410 
0, 0, 4323 
0, 0, 4243 
0, 0, 4468 
0, 0, 4964 
0, 0, 5686 
0, 0, 6839 
0, 1, 8784 
0, 0, 12870 
0, 2, 61990 
