159107, 4, 142211 
31, 8, 0 
218, 122, 347219 
2305, 48, 253964 
4, 185, 119097 
6338, 90, 214480 
64804, 139, 289867 
160, 137, 178831 
26848, 243, 180139 
1181, 113, 163342 
641, 234, 146780 
65521, 274, 152560 
19906, 366, 147505 
218418, 388, 158869 
117714, 483, 154993 
268708, 567, 157639 
406572, 1076, 152962 
277257, 432, 150113 
219620, 1475, 139009 
420100, 655, 129163 
327720, 1855, 131028 
442060, 1158, 111028 
314565, 1974, 109452 
25481, 2319, 100453 
127851, 2744, 98218 
114832, 3365, 92473 
63724, 4013, 96626 
502, 4530, 89416 
1043, 5421, 106249 
290, 6441, 101167 
219004, 7430, 106646 
14, 8483, 118129 
2116, 14607, 115880 
77, 6144, 128100 
14740, 18581, 121410 
45819, 7648, 120402 
85143, 21873, 125053 
42, 8912, 76086 
510, 24911, 83432 
101, 10458, 68315 
2125, 27981, 64928 
0, 11720, 49859 
31619, 29679, 33194 
8294, 14130, 42151 
1, 29111, 31707 
106, 18436, 26914 
0, 25337, 22804 
1, 26200, 20819 
146, 26537, 19229 
0, 27657, 16457 
80561, 28084, 15054 
937, 28892, 15045 
3, 29496, 12940 
0, 29804, 12858 
5, 29829, 11646 
5240, 29863, 13485 
75, 29912, 11786 
0, 29509, 12013 
0, 28898, 11275 
0, 28496, 12109 
566, 27717, 11834 
0, 27034, 11433 
0, 26001, 10937 
2, 24968, 9964 
0, 28760, 13249 
0, 18020, 10658 
21456, 25859, 9491 
0, 16341, 10264 
3, 22807, 10834 
0, 14119, 8170 
2370, 19615, 10975 
0, 11908, 8601 
0, 16552, 8226 
174, 9870, 8221 
7, 13754, 6920 
131444, 8251, 7770 
0, 11399, 5106 
0, 6549, 7344 
0, 9373, 5920 
31, 5305, 4958 
7967, 7749, 4963 
0, 4251, 4799 
47944, 6423, 3799 
331, 3372, 4861 
0, 5257, 1576 
0, 2763, 9185 
0, 4550, 1347 
2123, 2324, 3556 
0, 4055, 3215 
0, 2094, 2514 
15859, 4121, 3100 
0, 1940, 2414 
0, 4461, 2599 
209, 2132, 2520 
0, 5731, 2600 
208, 2750, 2064 
73468, 8496, 2881 
8, 3843, 1963 
5288, 9965, 2624 
0, 9106, 1922 
4, 14253, 2051 
21897, 15514, 1587 
7, 21263, 1986 
80530, 25105, 1523 
2712, 31116, 1642 
275, 36391, 1291 
14589, 43321, 1503 
30, 49101, 1490 
258, 55201, 1342 
36377, 59713, 2583 
102188, 63577, 923 
40017, 65912, 1185 
23709, 66495, 1145 
599, 64942, 1453 
71193, 62936, 1151 
113528, 59059, 1125 
8032, 55838, 1382 
195, 51808, 1132 
665, 49449, 1185 
768, 46827, 824 
346868, 45737, 748 
191, 44072, 1080 
4121, 44444, 791 
719, 44500, 766 
134261, 46064, 761 
205754, 46878, 915 
89516, 47954, 404 
1291, 48799, 232 
9583, 48946, 3795 
2231, 48082, 365 
26411, 47333, 773 
451, 45522, 642 
53311, 43288, 501 
53189, 40819, 566 
872, 38207, 758 
3326, 36382, 558 
2876, 33831, 469 
2632, 32206, 431 
7298, 30614, 512 
2222, 29532, 444 
64600, 28142, 466 
8863, 27134, 352 
4259, 26562, 1012 
1644, 25945, 468 
2107, 25892, 395 
14938, 25725, 401 
4672, 25929, 571 
1269, 25632, 279 
434, 25767, 313 
210, 25904, 385 
6400, 25811, 229 
159, 25560, 467 
223, 25735, 130 
1100, 25804, 1652 
117, 25891, 113 
430, 25998, 298 
28899, 25962, 217 
252, 26582, 304 
576, 26892, 251 
271, 27525, 293 
7988, 27681, 176 
80, 28037, 280 
105, 28925, 259 
1890, 29560, 158 
787, 30237, 252 
79905, 31483, 180 
136, 32834, 277 
86, 34599, 121 
8, 36794, 202 
651, 39425, 50 
14004, 42777, 487 
54, 47475, 55 
42754, 53203, 249 
503, 59696, 127 
266, 67211, 155 
285, 74635, 103 
12, 80667, 76 
4600, 85974, 182 
113, 90361, 73 
0, 93271, 151 
0, 94593, 239 
0, 95193, 37 
0, 96647, 830 
0, 95347, 30 
0, 93807, 131 
0, 90233, 118 
0, 86195, 70 
0, 81014, 115 
0, 74986, 101 
0, 68156, 62 
0, 61682, 139 
0, 56443, 586 
0, 52299, 8 
0, 49919, 99 
0, 48089, 77 
0, 47163, 98 
0, 45043, 62 
0, 41656, 60 
0, 38357, 150 
0, 35444, 8 
0, 31998, 185 
0, 28699, 86 
0, 26945, 41 
0, 24426, 51 
0, 22509, 370 
0, 20549, 8 
0, 18590, 92 
0, 16988, 86 
0, 15653, 7 
0, 14167, 136 
0, 13003, 31 
0, 11691, 128 
0, 10946, 3 
0, 10396, 244 
0, 9726, 69 
0, 8911, 12 
0, 8279, 86 
0, 7505, 38 
0, 7105, 4 
0, 6778, 166 
0, 6147, 52 
0, 5861, 95 
0, 5480, 46 
0, 5065, 113 
0, 4740, 95 
0, 4507, 113 
0, 4078, 20 
0, 3784, 75 
0, 3518, 49 
0, 3310, 4 
0, 3119, 61 
0, 3089, 28 
0, 3014, 72 
0, 2766, 42 
0, 2850, 79 
0, 2804, 128 
0, 2786, 50 
0, 2735, 97 
0, 2714, 37 
0, 2674, 136 
0, 2710, 42 
0, 2707, 5 
0, 2641, 10 
0, 2729, 4 
0, 2765, 0 
0, 2790, 0 
0, 2584, 0 
0, 2687, 0 
0, 2817, 0 
0, 2937, 0 
0, 2720, 0 
0, 2992, 0 
0, 3348, 0 
0, 5465, 0 
0, 11240, 0 
0, 5371, 17509 
