88899, 19159, 0 
1296, 231, 0 
5072, 1060, 0 
5127, 5747, 0 
993, 37727, 0 
18270, 13638, 0 
82330, 15399, 0 
541, 4922, 0 
17507, 22122, 0 
5883, 64325, 0 
4563, 119397, 2 
38926, 70227, 1 
14847, 39069, 0 
64710, 103121, 1 
40320, 106751, 1 
74699, 62734, 1 
114017, 133011, 0 
104507, 121106, 3 
101564, 93405, 2 
173309, 171009, 3 
223235, 175003, 0 
326599, 125676, 9 
406161, 152812, 11 
327863, 168969, 11 
391936, 162846, 13 
170207, 155910, 29 
444537, 173038, 48 
28699, 170342, 69 
40637, 148383, 99 
20755, 140865, 136 
310729, 120949, 176 
323, 118214, 216 
79321, 92792, 257 
2480, 97700, 304 
59010, 96933, 387 
100389, 93356, 471 
42028, 102261, 614 
52, 84021, 923 
1343, 99599, 1263 
448, 85732, 1880 
3405, 87229, 2843 
0, 80153, 4010 
10633, 80206, 5608 
6504, 79192, 7529 
0, 67822, 10319 
2, 65866, 13678 
0, 60710, 18180 
0, 54848, 23799 
72, 51450, 30406 
0, 45657, 37219 
11364, 43139, 42743 
282, 39298, 46215 
5, 34987, 46985 
0, 32266, 46262 
0, 28537, 43826 
1180, 26796, 40625 
24, 23729, 37128 
0, 22560, 34738 
0, 19780, 32486 
0, 17070, 30969 
37, 15161, 29388 
0, 13643, 27832 
0, 11782, 25922 
0, 10872, 23853 
0, 9693, 21133 
0, 9386, 18745 
2130, 7997, 16593 
0, 7771, 14398 
0, 7133, 12624 
0, 6100, 10627 
155, 5890, 8796 
0, 5590, 7488 
0, 4993, 5786 
0, 4177, 4605 
0, 3700, 3801 
8626, 2836, 3032 
0, 2568, 2543 
0, 2543, 2055 
0, 1967, 1894 
0, 1414, 1798 
167, 1152, 1691 
0, 1036, 1677 
0, 795, 1618 
1701, 709, 1649 
0, 397, 1724 
0, 695, 1667 
0, 196, 1747 
0, 343, 1769 
0, 304, 1874 
0, 169, 1805 
21, 260, 1816 
0, 142, 1868 
0, 163, 1957 
0, 125, 1938 
0, 158, 1975 
0, 116, 2115 
177, 164, 2264 
0, 111, 2387 
0, 123, 2456 
0, 71, 2565 
0, 131, 2718 
0, 95, 2693 
0, 93, 2765 
9, 73, 2867 
0, 82, 3028 
2, 66, 3296 
0, 95, 3500 
0, 52, 3630 
0, 54, 4175 
0, 79, 4671 
849, 50, 5813 
0, 57, 7136 
0, 50, 8837 
0, 42, 10980 
82, 48, 13023 
13, 40, 15203 
0, 29, 16928 
0, 30, 18496 
0, 36, 20476 
0, 22, 22467 
2613, 52, 24991 
0, 34, 27127 
0, 28, 28807 
0, 19, 30268 
3, 30, 30894 
14, 25, 30989 
198, 4, 30915 
0, 32, 31030 
4, 29, 31330 
0, 3, 31487 
53, 13, 32252 
0, 35, 32218 
2662, 7, 32178 
286, 15, 32514 
1, 12, 32753 
35, 23, 34124 
78, 6, 34289 
0, 13, 35189 
408, 18, 36305 
1, 10, 37033 
24737, 13, 37560 
956, 5, 37776 
572, 14, 36844 
7, 14, 36040 
327, 8, 36108 
7868, 6, 36097 
2491, 11, 37627 
1647, 11, 39629 
163, 10, 42516 
0, 10, 45303 
13811, 10, 48290 
0, 5, 50585 
5547, 5, 51549 
6264, 7, 52195 
11, 5, 52201 
26983, 7, 52055 
79815, 5, 51912 
36948, 5, 52883 
34562, 4, 53647 
62108, 5, 55233 
59580, 4, 56399 
21695, 4, 56502 
6034, 5, 56204 
26413, 5, 53644 
21154, 3, 50239 
54275, 5, 47599 
5392, 1, 45143 
214, 6, 43180 
153, 9, 40868 
7736, 1, 37984 
179776, 6, 34459 
246, 1, 31930 
49, 9, 30172 
169258, 4, 29144 
4443, 5, 28987 
3151, 4, 28349 
506, 3, 27959 
19429, 3, 27705 
2161, 1, 27517 
854, 6, 27925 
0, 5, 28278 
0, 6, 28997 
0, 2, 30296 
0, 3, 32162 
0, 4, 34318 
0, 4, 35401 
0, 2, 35807 
0, 1, 35139 
0, 2, 33722 
0, 1, 32647 
0, 1, 31848 
0, 1, 30468 
0, 0, 28244 
0, 4, 26529 
0, 1, 25184 
0, 4, 23924 
0, 1, 22930 
0, 2, 22289 
0, 4, 21981 
0, 3, 21455 
0, 1, 21126 
0, 0, 21275 
0, 1, 20842 
0, 0, 20573 
0, 3, 20482 
0, 0, 20724 
0, 0, 20596 
0, 1, 20432 
0, 2, 20414 
0, 1, 20185 
0, 0, 20182 
0, 0, 20007 
0, 0, 19607 
0, 0, 19464 
0, 0, 19534 
0, 2, 19525 
0, 0, 19299 
0, 0, 19056 
0, 0, 19063 
0, 0, 19225 
0, 1, 19416 
0, 0, 19495 
0, 2, 19537 
0, 0, 19722 
0, 0, 19694 
0, 2, 19461 
0, 0, 19608 
0, 1, 19677 
0, 0, 19755 
0, 0, 19218 
0, 1, 19384 
0, 0, 19024 
0, 0, 18921 
0, 0, 18533 
0, 0, 18822 
0, 0, 17925 
0, 0, 17276 
0, 0, 16335 
0, 0, 15448 
0, 2, 14384 
0, 2, 13033 
0, 0, 11747 
0, 1, 10582 
0, 0, 9864 
0, 0, 9050 
0, 0, 9145 
0, 0, 8876 
0, 0, 8222 
0, 0, 7369 
0, 0, 7213 
0, 0, 6836 
0, 0, 6994 
0, 0, 8230 
0, 0, 10404 
0, 0, 13023 
0, 12, 38484 
