161274, 31866, 1 
163, 743, 4 
5441, 5209, 2 
11920, 2009, 11 
302, 69100, 4 
31545, 46901, 10 
175648, 77067, 10 
458, 54134, 17 
48171, 43988, 24 
3922, 37625, 48 
4315, 153146, 91 
101724, 156303, 150 
8312, 168447, 304 
142612, 181281, 499 
34912, 147032, 736 
57944, 169375, 876 
70273, 148655, 920 
78542, 121706, 868 
74201, 138056, 860 
164060, 151482, 911 
186437, 147763, 1054 
163636, 164303, 1153 
172403, 202328, 1452 
126401, 219428, 1951 
114414, 208063, 2747 
115105, 185514, 3823 
467865, 212008, 5160 
12168, 222575, 6426 
38074, 191598, 7445 
13572, 174281, 7854 
394715, 131109, 7502 
1254, 141403, 6994 
199999, 109512, 6662 
2322, 119306, 7175 
134543, 96341, 8180 
313308, 79671, 10441 
77190, 95843, 13757 
375, 57505, 18243 
53290, 66411, 23685 
15852, 58745, 29369 
71411, 61165, 35218 
3, 54516, 40585 
94362, 53330, 44452 
69261, 49249, 47434 
1, 49267, 48474 
7426, 47720, 49102 
42, 44832, 48677 
0, 41280, 46445 
23671, 40562, 44412 
0, 37703, 41273 
127703, 35810, 37790 
36377, 32507, 33427 
1777, 29472, 29289 
0, 27545, 25469 
10, 22036, 22291 
86750, 21836, 19354 
7303, 17399, 16953 
97, 16501, 15144 
0, 12414, 13789 
0, 11296, 12568 
39340, 9492, 11773 
0, 7711, 10909 
0, 7106, 10297 
551, 4955, 9571 
0, 5019, 9312 
17, 4016, 9088 
147398, 3280, 8729 
0, 3070, 8731 
164, 2833, 8927 
8, 2270, 8657 
86296, 2048, 8746 
1, 1644, 8738 
0, 1391, 8652 
12496, 1210, 8719 
660, 1041, 8240 
41974, 960, 8052 
0, 677, 7662 
0, 753, 7380 
0, 644, 7097 
393, 440, 6566 
43778, 590, 6259 
0, 499, 5789 
0, 366, 5378 
59573, 483, 4895 
0, 311, 4680 
0, 655, 4515 
0, 266, 4521 
1144, 283, 4648 
0, 227, 5551 
0, 226, 6529 
5732, 212, 8101 
0, 213, 9940 
0, 114, 12214 
122, 96, 14279 
0, 83, 16446 
131, 49, 18547 
5956, 97, 20424 
0, 43, 23158 
459, 94, 25151 
11, 52, 26603 
10, 25, 27021 
900, 16, 27656 
11, 50, 27788 
867, 18, 27388 
179, 14, 27032 
332, 15, 27052 
269, 29, 27436 
85, 10, 28504 
63, 7, 30618 
449, 22, 32737 
3774, 0, 36402 
496, 4, 40968 
303, 10, 46217 
194, 12, 52223 
490, 1, 57619 
248, 0, 61892 
180, 15, 65356 
0, 2, 68305 
0, 6, 71370 
0, 10, 75911 
7024, 5, 80493 
0, 3, 85451 
14, 1, 90644 
0, 1, 94045 
124, 3, 97263 
315, 0, 98290 
1150, 0, 100087 
0, 1, 101983 
30, 14, 102676 
0, 0, 102270 
78, 1, 98727 
0, 0, 90545 
7627, 0, 81287 
611, 2, 72646 
0, 2, 64428 
20, 0, 58475 
0, 1, 54501 
0, 3, 52171 
101, 0, 49745 
0, 1, 47864 
32470, 2, 46149 
1319, 0, 44267 
145, 10, 42739 
0, 0, 41476 
0, 0, 40215 
16760, 0, 40284 
2775, 2, 40260 
62, 0, 42294 
5, 0, 45281 
0, 3, 47215 
27206, 0, 49424 
0, 0, 50409 
5, 0, 49729 
2769, 1, 47217 
1, 0, 45372 
813, 0, 43107 
78670, 0, 42046 
90, 1, 40945 
5874, 0, 38950 
667, 6, 37110 
78840, 0, 34534 
91, 0, 31282 
36, 2, 28863 
49649, 0, 26609 
14223, 0, 25154 
44634, 0, 23895 
166, 0, 22879 
44, 0, 21442 
50, 0, 20501 
13491, 0, 19472 
213015, 2, 18831 
39, 0, 18404 
7, 0, 17952 
149992, 0, 17901 
2110, 0, 17210 
3686, 0, 17013 
180, 0, 16322 
41886, 0, 15663 
1305, 0, 15069 
85, 1, 14136 
0, 0, 13411 
0, 0, 13178 
0, 5, 12458 
0, 0, 11999 
0, 0, 11937 
0, 1, 11763 
0, 0, 11722 
0, 0, 11801 
0, 0, 11714 
0, 0, 11415 
0, 0, 11383 
0, 0, 11133 
0, 0, 10950 
0, 0, 10311 
0, 0, 10354 
0, 0, 10044 
0, 0, 9832 
0, 0, 9996 
0, 2, 9763 
0, 0, 9701 
0, 0, 9853 
0, 0, 9278 
0, 0, 9318 
0, 0, 8910 
0, 2, 8756 
0, 0, 8196 
0, 0, 7705 
0, 0, 7424 
0, 0, 7137 
0, 1, 6643 
0, 0, 6229 
0, 0, 6090 
0, 0, 5812 
0, 1, 5702 
0, 0, 5708 
0, 0, 5359 
0, 0, 5444 
0, 0, 5143 
0, 0, 5015 
0, 2, 5026 
0, 0, 4934 
0, 0, 4704 
0, 0, 4416 
0, 2, 4384 
0, 0, 4288 
0, 0, 4207 
0, 0, 4043 
0, 0, 3957 
0, 0, 3660 
0, 0, 3503 
0, 0, 3425 
0, 0, 3444 
0, 0, 3428 
0, 0, 3160 
0, 0, 3157 
0, 0, 3215 
0, 0, 3163 
0, 0, 3179 
0, 0, 3230 
0, 0, 3184 
0, 0, 2997 
0, 0, 3041 
0, 0, 3024 
0, 0, 3022 
0, 0, 2989 
0, 0, 3021 
0, 0, 2989 
0, 0, 2984 
0, 0, 3109 
0, 0, 3303 
0, 0, 3716 
0, 0, 4352 
0, 0, 5168 
0, 0, 6368 
0, 0, 8762 
0, 23, 29279 
