100672, 0, 39965 
1076, 0, 0 
3350, 1, 67245 
9510, 0, 88819 
1625, 2, 47835 
23126, 0, 125600 
129665, 1, 382487 
2077, 0, 374077 
24469, 0, 287319 
10155, 1, 292110 
9466, 2, 312306 
64807, 2, 240129 
28813, 1, 291321 
119068, 2, 252801 
52175, 2, 261489 
76646, 4, 246492 
143783, 8, 215498 
89331, 5, 200900 
95103, 9, 180755 
179566, 12, 150865 
213966, 23, 116806 
402536, 13, 93554 
505500, 40, 76825 
53719, 56, 68000 
143267, 58, 56393 
166469, 118, 48729 
304081, 227, 47402 
12051, 418, 41034 
21147, 761, 34971 
11303, 1619, 30782 
623542, 3661, 29935 
2380, 7541, 25474 
48383, 22794, 24377 
1910, 14164, 21851 
211159, 48248, 20351 
367084, 24755, 18555 
124078, 57941, 22639 
800, 25687, 14988 
12287, 51513, 17709 
2477, 22395, 17015 
52473, 46319, 16624 
384, 20046, 16045 
173541, 35880, 16429 
143734, 14603, 15930 
158, 20668, 15303 
1055, 8327, 14197 
148, 8642, 12962 
84, 5713, 13767 
5584, 3893, 12646 
10, 2491, 11318 
56391, 1777, 13934 
28707, 1339, 8293 
194, 1214, 13648 
0, 1170, 11048 
2, 1227, 11999 
62970, 1241, 11237 
1605, 1325, 11342 
8, 1487, 10866 
0, 1694, 10221 
0, 1809, 10503 
6127, 2027, 10226 
0, 2222, 10296 
0, 2597, 9607 
67, 2853, 9579 
0, 5412, 8347 
1, 881, 9756 
37795, 6051, 8757 
1, 910, 8577 
14, 6237, 8430 
0, 1008, 7259 
9946, 6778, 9158 
0, 988, 7364 
0, 7921, 7237 
1233, 1023, 7429 
50, 9379, 6752 
13928, 1181, 6976 
0, 11590, 6136 
0, 1345, 6970 
0, 13595, 6337 
351, 1569, 6130 
20616, 15713, 5755 
0, 1812, 5782 
14764, 18005, 5875 
31, 2079, 4663 
0, 19605, 5147 
32, 2570, 7643 
0, 20866, 4556 
4771, 3427, 4222 
0, 23222, 5377 
0, 4637, 4474 
6221, 26422, 4990 
0, 5919, 4767 
0, 29513, 4099 
355, 7511, 4799 
0, 31979, 4752 
54, 8467, 4253 
3554, 31878, 4443 
0, 9148, 4537 
129, 27684, 4506 
3, 12313, 4179 
4, 25812, 4867 
1156, 13548, 3921 
7, 22473, 4921 
1215, 16968, 4071 
123, 21164, 4451 
138, 20876, 4082 
458, 23533, 4320 
92, 24073, 4121 
102, 26638, 3319 
670, 27390, 5291 
1578, 29516, 2955 
789, 29747, 4373 
1045, 31376, 3715 
510, 30846, 3803 
2291, 32069, 4020 
3068, 31679, 3931 
5753, 32596, 3897 
7007, 32548, 3315 
9667, 33457, 3954 
7682, 33112, 3640 
11046, 34992, 3644 
5466, 36106, 4159 
4438, 38968, 3161 
2824, 40649, 3964 
1655, 43077, 2936 
1494, 44207, 4399 
668, 44589, 3577 
213, 43396, 724 
176, 43379, 5828 
117, 42588, 3318 
196, 44740, 3939 
38, 49518, 2294 
524, 55806, 3099 
217, 63824, 3385 
23, 72759, 2654 
80, 82530, 3220 
55, 88875, 2879 
5, 92656, 2683 
91, 93334, 3106 
8, 92662, 2807 
8729, 91828, 2500 
109, 91676, 2648 
50, 93065, 3325 
9, 96764, 2699 
11, 101110, 2328 
825, 104901, 2556 
229, 107626, 2813 
83, 109635, 2221 
10, 113541, 2147 
0, 118791, 2605 
1893, 122103, 1741 
1, 123934, 2137 
45, 118758, 2049 
1124, 110931, 2901 
5, 101133, 2231 
2473, 92093, 1705 
26701, 83544, 1628 
1677, 74457, 1816 
20492, 66937, 1808 
17973, 60979, 1803 
6656, 55720, 1460 
5910, 51586, 1479 
1158, 46296, 1931 
16916, 42491, 1397 
93350, 39652, 1441 
85690, 36449, 1269 
19476, 34461, 1602 
986, 31441, 1358 
72, 28936, 1296 
27385, 27307, 1058 
82761, 25774, 1687 
695, 24377, 1238 
160076, 23726, 1050 
623, 22483, 1117 
4914, 21263, 1173 
3909, 20475, 859 
259, 19339, 751 
22352, 18406, 1441 
3196, 17740, 567 
11, 17427, 1363 
0, 16905, 751 
0, 16481, 1059 
0, 16264, 1425 
0, 16041, 809 
0, 15589, 810 
0, 14832, 1090 
0, 14110, 764 
0, 13587, 646 
0, 13460, 944 
0, 13362, 662 
0, 13555, 954 
0, 13013, 1340 
0, 13166, 542 
0, 12903, 701 
0, 12158, 978 
0, 11874, 636 
0, 11255, 693 
0, 11101, 763 
0, 11111, 880 
0, 11035, 543 
0, 11114, 669 
0, 11272, 769 
0, 11477, 639 
0, 11644, 754 
0, 12140, 869 
0, 12353, 699 
0, 12338, 775 
0, 12442, 558 
0, 12293, 414 
0, 11826, 1011 
0, 11202, 542 
0, 10342, 730 
0, 9396, 350 
0, 8634, 1136 
0, 7717, 675 
0, 6991, 685 
0, 6143, 606 
0, 5787, 707 
0, 5323, 614 
0, 5239, 1222 
0, 5094, 689 
0, 5100, 596 
0, 5082, 817 
0, 4941, 742 
0, 5091, 861 
0, 5220, 789 
0, 5148, 633 
0, 5140, 873 
0, 4815, 636 
0, 4700, 611 
0, 4500, 1205 
0, 4496, 1033 
0, 4421, 749 
0, 4297, 774 
0, 4156, 727 
0, 4202, 894 
0, 3788, 903 
0, 3226, 993 
0, 2844, 692 
0, 2595, 888 
0, 2333, 787 
0, 1973, 556 
0, 1598, 1092 
0, 1496, 1106 
0, 1276, 1132 
0, 1693, 1271 
0, 1273, 1400 
0, 1370, 1001 
0, 1583, 183 
0, 1535, 53 
0, 1515, 43 
0, 1815, 1 
0, 2297, 0 
0, 5614, 0 
0, 10319, 0 
0, 8698, 53294 
