859, 0, 0 
104096, 0, 0 
1306970, 0, 0 
603211, 0, 0 
190436, 0, 0 
66942, 0, 0 
31019, 0, 0 
17313, 0, 0 
24785, 0, 0 
12145, 0, 0 
11780, 0, 0 
10804, 0, 0 
8149, 73, 0 
26292, 0, 0 
11227, 2574, 0 
20884, 7397, 0 
22000, 1055, 0 
12470, 49852, 0 
349, 44273, 0 
40472, 60397, 0 
23620, 27248, 0 
79267, 46092, 0 
19811, 35865, 0 
76620, 13065, 0 
196, 22616, 0 
85417, 36166, 0 
110670, 15551, 0 
0, 10257, 0 
151, 26291, 0 
0, 20376, 0 
9760, 12940, 0 
0, 19813, 0 
10013, 15163, 0 
0, 7338, 0 
62, 4450, 0 
6, 5465, 0 
0, 4769, 0 
0, 3994, 5 
0, 4211, 10 
0, 3648, 41 
0, 3821, 106 
0, 5564, 205 
0, 5843, 321 
0, 5774, 366 
0, 5413, 547 
0, 6013, 762 
0, 5439, 679 
0, 4743, 679 
0, 3536, 615 
0, 2472, 644 
0, 2241, 602 
0, 1903, 610 
0, 1831, 573 
0, 1900, 504 
0, 1962, 516 
0, 1936, 471 
0, 1919, 470 
0, 1641, 563 
0, 1631, 660 
0, 1545, 822 
0, 1545, 921 
0, 1459, 907 
0, 1589, 902 
0, 1642, 848 
0, 1465, 844 
0, 1814, 850 
0, 1621, 828 
0, 1620, 806 
0, 1730, 805 
0, 1554, 879 
0, 1749, 1022 
0, 1710, 1454 
0, 1736, 1884 
0, 1745, 2457 
0, 1836, 2957 
0, 2020, 4098 
0, 1959, 5597 
0, 2067, 8145 
0, 2170, 10637 
0, 1921, 12370 
0, 1962, 13129 
0, 1966, 13829 
0, 1806, 14560 
0, 1872, 16831 
0, 2030, 19696 
0, 1213, 23319 
0, 1924, 26197 
0, 1654, 26737 
0, 1438, 26915 
0, 1561, 27177 
0, 1431, 25363 
0, 1404, 25068 
0, 1260, 27166 
0, 1274, 28977 
0, 1318, 30196 
0, 1467, 30551 
0, 1221, 29021 
0, 1320, 27054 
0, 1454, 28774 
0, 1197, 30169 
0, 1432, 29199 
0, 1277, 30612 
0, 1391, 31863 
0, 1145, 33571 
0, 1304, 35584 
0, 1213, 37321 
0, 1226, 36851 
0, 1197, 35777 
0, 1235, 34702 
0, 1288, 36854 
0, 1219, 41138 
0, 1522, 45311 
0, 1344, 48045 
0, 1601, 50988 
0, 1558, 57387 
0, 1883, 64470 
0, 1759, 68026 
0, 2003, 69645 
0, 2113, 68965 
0, 2169, 67031 
0, 2563, 62670 
0, 2554, 57010 
0, 2118, 53108 
0, 3022, 50747 
0, 2591, 46707 
0, 2779, 42480 
0, 3590, 39728 
0, 2417, 36527 
0, 2052, 33599 
0, 4124, 30780 
0, 3787, 29165 
0, 3495, 28115 
0, 3605, 27084 
0, 4150, 25094 
0, 3998, 22426 
0, 4240, 19665 
0, 4494, 17144 
0, 4382, 15434 
0, 4932, 14491 
0, 4733, 14522 
0, 4996, 14758 
0, 6366, 14690 
0, 5872, 14619 
0, 7594, 14302 
0, 7035, 14173 
0, 8571, 14302 
0, 8254, 14261 
0, 9412, 13787 
0, 11734, 12874 
0, 13056, 11853 
0, 14988, 10307 
0, 14842, 8381 
0, 14626, 7111 
0, 17821, 6433 
0, 15522, 5739 
0, 14926, 5202 
0, 14339, 4874 
0, 14294, 4499 
0, 15529, 4320 
0, 16982, 4220 
0, 14447, 4322 
0, 18185, 4207 
0, 20563, 4111 
0, 22711, 3968 
0, 22568, 3788 
0, 28522, 3689 
0, 29864, 3520 
0, 28393, 3295 
0, 34250, 3120 
0, 43908, 3065 
0, 28828, 2965 
0, 46349, 3030 
0, 42051, 2935 
0, 41532, 3098 
0, 38950, 3600 
0, 41753, 4523 
0, 40311, 5877 
0, 38189, 7290 
0, 38392, 9128 
0, 45255, 10856 
0, 39736, 12824 
0, 35892, 14296 
0, 45244, 15217 
0, 44208, 14411 
0, 37157, 13092 
0, 43333, 11570 
0, 45486, 10706 
0, 37975, 10204 
0, 46256, 9756 
0, 44874, 9189 
0, 33556, 7675 
0, 55319, 6677 
0, 38269, 6178 
0, 46163, 6208 
0, 35416, 6576 
0, 40997, 7142 
0, 51900, 7071 
0, 36835, 6900 
0, 43499, 6911 
0, 39470, 7115 
0, 46003, 7198 
0, 57128, 7568 
0, 52784, 8344 
0, 48641, 9700 
0, 58688, 10906 
0, 42559, 12410 
0, 37387, 13526 
0, 33265, 14388 
0, 31088, 14937 
0, 19089, 15042 
0, 12880, 15503 
0, 10244, 16154 
0, 4572, 17571 
0, 3705, 18662 
0, 1141, 17836 
0, 1000, 15016 
0, 343, 12296 
0, 326, 10541 
0, 90, 9815 
0, 81, 10036 
0, 49, 10367 
0, 18, 11018 
0, 20, 10322 
0, 7, 8316 
0, 8, 5266 
0, 3, 2518 
0, 5, 873 
0, 4, 227 
0, 0, 58 
0, 1, 15 
0, 3, 4 
0, 1, 2 
0, 2, 2 
0, 1, 1 
0, 0, 1 
0, 0, 0 
0, 0, 0 
0, 0, 0 
0, 0, 0 
0, 0, 0 
0, 0, 0 
0, 0, 0 
0, 0, 0 
0, 0, 0 
0, 0, 0 
0, 0, 0 
0, 0, 0 
0, 0, 0 
0, 0, 0 
0, 0, 0 
0, 0, 0 
0, 0, 0 
0, 0, 0 
0, 0, 0 
0, 0, 0 
0, 0, 0 
