848, 0, 0 
104096, 0, 0 
1331545, 0, 0 
578636, 0, 0 
190436, 0, 0 
66942, 0, 0 
31019, 0, 0 
17562, 0, 0 
24541, 0, 0 
12140, 0, 0 
11780, 0, 0 
10804, 0, 0 
8149, 0, 0 
26292, 0, 0 
11227, 0, 0 
20884, 0, 0 
22000, 0, 0 
12470, 0, 0 
349, 0, 0 
40472, 0, 0 
23620, 0, 0 
79267, 0, 7 
84093, 0, 62 
12338, 1, 248 
196, 17, 602 
85420, 9, 1955 
110667, 120, 7173 
0, 157, 10075 
151, 466, 17775 
0, 763, 24191 
9760, 1008, 27670 
0, 973, 28399 
10013, 1194, 25810 
0, 424, 26809 
62, 985, 28306 
6, 374, 22335 
0, 1198, 27071 
0, 279, 16421 
0, 1216, 21565 
0, 427, 23300 
0, 974, 26751 
0, 409, 23050 
0, 774, 23573 
0, 374, 32241 
0, 911, 21130 
0, 646, 20470 
0, 1362, 22309 
0, 1347, 20284 
0, 2820, 15738 
0, 2871, 14894 
0, 8649, 16508 
0, 11997, 14408 
0, 28674, 12084 
0, 29798, 8618 
0, 57656, 7245 
0, 36423, 8011 
0, 66187, 6246 
0, 36717, 5101 
0, 59919, 3851 
0, 42510, 3541 
0, 50183, 3332 
0, 51749, 3053 
0, 53319, 2833 
0, 52546, 2823 
0, 82950, 2403 
0, 18345, 2307 
0, 85180, 2300 
0, 25881, 2309 
0, 82662, 2216 
0, 28803, 1936 
0, 97687, 2280 
0, 37058, 2149 
0, 117837, 2481 
0, 40552, 2303 
0, 109939, 2335 
0, 34782, 2447 
0, 101256, 2982 
0, 31075, 2651 
0, 96690, 3001 
0, 27023, 2814 
0, 83959, 2907 
0, 23014, 3538 
0, 67013, 3030 
0, 19801, 2776 
0, 50646, 3563 
0, 16450, 4037 
0, 44689, 4043 
0, 16019, 3712 
0, 42801, 3652 
0, 15003, 4081 
0, 38429, 4731 
0, 14289, 4388 
0, 33256, 4683 
0, 12015, 4728 
0, 30932, 4751 
0, 12203, 5364 
0, 30344, 5213 
0, 10985, 5942 
0, 26274, 6172 
0, 8259, 6866 
0, 20320, 7414 
0, 6096, 8344 
0, 14557, 8935 
0, 4867, 9763 
0, 11553, 11012 
0, 3962, 12463 
0, 8799, 14869 
0, 2469, 14044 
0, 6286, 15193 
0, 1558, 15776 
0, 5025, 16212 
0, 1149, 14732 
0, 3590, 13354 
0, 1037, 14547 
0, 3044, 15694 
0, 1067, 12416 
0, 2354, 16143 
0, 1030, 16334 
0, 2079, 15994 
0, 1182, 17825 
0, 1929, 23188 
0, 1488, 21901 
0, 1847, 25938 
0, 1500, 27039 
0, 1918, 27830 
0, 1649, 33058 
0, 1782, 28458 
0, 1672, 33406 
0, 1697, 37084 
0, 1736, 31017 
0, 1704, 39450 
0, 1752, 39114 
0, 1759, 32493 
0, 1945, 36591 
0, 2106, 34930 
0, 2071, 31152 
0, 2107, 38342 
0, 2002, 26742 
0, 2082, 41319 
0, 2152, 30937 
0, 2069, 31787 
0, 2038, 35508 
0, 1977, 33452 
0, 1868, 36578 
0, 1836, 33932 
0, 1941, 37459 
0, 1901, 32440 
0, 1997, 34808 
0, 2145, 35635 
0, 2265, 32751 
0, 2239, 40715 
0, 2295, 26281 
0, 2339, 44233 
0, 2340, 22520 
0, 2414, 36458 
0, 2479, 33874 
0, 2443, 28425 
0, 2375, 40418 
0, 2421, 20401 
0, 2389, 40205 
0, 2551, 30449 
0, 2564, 23439 
0, 2996, 39410 
0, 3562, 32099 
0, 4335, 32574 
0, 5386, 41284 
0, 6706, 36610 
0, 8019, 31196 
0, 9852, 41832 
0, 11281, 44210 
0, 12531, 25113 
0, 13028, 44483 
0, 12486, 23778 
0, 11803, 29481 
0, 11066, 27295 
0, 10383, 18866 
0, 9935, 18192 
0, 9446, 16119 
0, 8863, 7225 
0, 8435, 10669 
11, 7309, 7736 
0, 5959, 2163 
0, 5198, 3339 
0, 4959, 2916 
0, 5093, 933 
0, 5396, 712 
0, 5682, 819 
0, 5665, 230 
0, 5764, 183 
0, 5852, 256 
0, 5764, 58 
0, 6431, 54 
0, 7125, 57 
0, 7828, 33 
0, 8785, 22 
0, 9825, 7 
0, 10315, 16 
0, 10801, 13 
0, 11608, 5 
0, 12680, 3 
0, 13725, 5 
0, 14277, 1 
0, 14976, 3 
0, 16060, 4 
0, 17861, 1 
0, 19305, 3 
0, 18780, 0 
0, 16198, 1 
0, 13258, 0 
0, 10497, 2 
0, 9095, 1 
0, 8724, 1 
0, 8990, 0 
0, 9219, 2 
0, 9193, 1 
0, 7982, 0 
0, 5678, 0 
0, 3373, 0 
0, 1559, 0 
0, 436, 0 
0, 99, 0 
0, 19, 0 
0, 4, 0 
0, 1, 0 
0, 0, 0 
0, 0, 0 
0, 0, 0 
0, 0, 0 
0, 0, 0 
0, 0, 0 
0, 0, 0 
0, 0, 0 
0, 0, 0 
0, 0, 0 
0, 0, 0 
0, 0, 0 
0, 0, 0 
0, 0, 0 
0, 0, 0 
0, 0, 0 
0, 0, 0 
0, 0, 0 
0, 0, 0 
0, 0, 0 
0, 0, 0 
0, 0, 0 
0, 0, 0 
0, 0, 0 
0, 0, 0 
0, 0, 0 
0, 0, 0 
0, 0, 0 
0, 0, 0 
0, 0, 0 
0, 0, 0 
0, 0, 0 
