88899, 0, 19159 
1296, 0, 0 
5072, 0, 41408 
5127, 0, 23232 
993, 0, 15712 
18270, 0, 77907 
82330, 1, 93728 
1198, 2, 122675 
16850, 1, 80036 
5883, 0, 135289 
4563, 1, 169706 
38926, 2, 121831 
14847, 3, 178276 
64710, 6, 227760 
40323, 3, 216684 
74696, 6, 221385 
116397, 17, 189346 
95811, 4, 163215 
107880, 21, 152503 
174632, 11, 140337 
221912, 31, 130691 
327155, 37, 104795 
632948, 63, 92425 
100520, 86, 99499 
391936, 148, 92432 
171885, 170, 82502 
442859, 241, 83234 
28241, 279, 67214 
41391, 342, 61691 
20459, 353, 54285 
310730, 366, 50016 
407, 436, 48108 
79361, 918, 42008 
2355, 308, 38173 
59010, 1304, 35647 
100389, 511, 31183 
42028, 2458, 34564 
52, 1148, 22789 
1343, 5214, 26017 
448, 2462, 23400 
3405, 9480, 23833 
0, 4725, 21505 
10633, 16214, 20803 
6504, 8777, 21422 
0, 26545, 19765 
2, 17368, 20340 
0, 32143, 18191 
0, 39890, 18745 
72, 46102, 18528 
0, 50191, 17818 
11364, 50085, 19286 
282, 49000, 13178 
5, 45392, 18543 
0, 41386, 17941 
0, 37929, 17539 
1180, 34952, 17194 
24, 32982, 17177 
0, 30961, 16562 
0, 28456, 16518 
0, 26240, 15665 
37, 23810, 16384 
0, 21253, 17035 
0, 18796, 15728 
0, 16764, 15406 
0, 20523, 14916 
0, 7474, 14954 
2130, 15009, 13570 
0, 5589, 13384 
0, 10234, 13949 
0, 3798, 11899 
155, 6813, 15548 
0, 2475, 12976 
0, 4744, 12681 
0, 1736, 13655 
0, 3585, 12422 
8626, 1224, 12253 
0, 3057, 11201 
0, 1118, 13328 
0, 2959, 12400 
0, 1032, 10624 
167, 2698, 11644 
0, 1002, 11184 
1701, 2800, 10496 
0, 1103, 12576 
0, 2677, 6219 
0, 1124, 16891 
0, 2831, 5344 
0, 1141, 12440 
0, 2852, 9854 
0, 1158, 9793 
21, 3121, 10989 
0, 1298, 8019 
0, 3547, 10104 
0, 1402, 8409 
0, 3751, 9190 
0, 1583, 8806 
177, 4023, 9480 
0, 1587, 7902 
0, 4279, 9103 
0, 1850, 8105 
0, 4762, 9356 
0, 2268, 8198 
0, 4567, 7209 
9, 4098, 8720 
0, 6092, 8101 
2, 6812, 8539 
0, 9064, 6641 
0, 10888, 6891 
0, 13575, 8545 
0, 16233, 8333 
849, 19036, 6524 
0, 21621, 6476 
0, 25020, 5981 
0, 27514, 8060 
82, 29813, 5393 
13, 31514, 7439 
0, 32438, 6830 
0, 32613, 3977 
0, 32974, 6209 
0, 33500, 6667 
2613, 33474, 4341 
0, 33305, 6708 
0, 32765, 4836 
0, 32683, 4725 
3, 32447, 6265 
14, 32092, 3713 
198, 31212, 5883 
0, 30714, 51 
4, 29521, 9362 
0, 29263, 5551 
53, 28681, 2707 
0, 29287, 6038 
2662, 29751, 4100 
286, 31317, 3455 
1, 32626, 4802 
35, 34335, 5109 
78, 35514, 3110 
0, 36020, 3743 
408, 36278, 4706 
1, 36769, 3872 
24737, 36940, 2258 
956, 38459, 2493 
572, 40392, 5117 
7, 42816, 4052 
327, 45956, 2086 
7868, 49890, 2808 
2491, 53652, 3938 
1647, 56871, 2547 
163, 59044, 2706 
0, 59994, 3050 
13811, 61732, 2344 
0, 63425, 2601 
5547, 65318, 1710 
6264, 68043, 4248 
11, 70926, 1507 
26983, 71815, 1989 
79815, 69409, 1940 
36982, 64994, 2544 
34528, 59445, 1863 
62108, 54813, 2375 
59580, 50205, 1216 
21695, 46685, 1769 
6046, 43110, 2842 
26409, 40153, 1250 
21146, 37367, 1538 
54275, 34892, 1902 
5492, 33471, 1474 
116, 32909, 1500 
151, 32401, 1948 
7736, 31796, 987 
179776, 31734, 2632 
246, 31254, 1139 
169147, 31939, 1229 
160, 32395, 1505 
4443, 32952, 1191 
3151, 34649, 1478 
506, 35948, 1052 
19429, 38105, 1880 
2802, 39412, 689 
213, 40673, 1924 
0, 39813, 869 
0, 37897, 1140 
0, 35097, 2028 
0, 31812, 775 
0, 29541, 950 
0, 27470, 1171 
0, 26228, 1258 
0, 25707, 975 
0, 24742, 1175 
0, 23883, 752 
0, 22888, 1063 
0, 22376, 1629 
0, 21960, 755 
0, 22133, 950 
0, 21910, 1139 
0, 21889, 710 
0, 21124, 1009 
0, 21339, 857 
0, 21450, 1349 
0, 21277, 561 
0, 21466, 967 
0, 21491, 916 
0, 21207, 731 
0, 21382, 726 
0, 21367, 1017 
0, 21502, 773 
0, 21621, 1009 
0, 22043, 606 
0, 21933, 585 
0, 22192, 1344 
0, 21766, 557 
0, 21687, 954 
0, 21491, 410 
0, 21674, 1278 
0, 21354, 798 
0, 20913, 698 
0, 20244, 1027 
0, 18674, 815 
0, 17563, 480 
0, 15957, 1234 
0, 14448, 811 
0, 13017, 610 
0, 11454, 954 
0, 10564, 677 
0, 9833, 888 
0, 9687, 820 
0, 9540, 751 
0, 9346, 1134 
0, 9255, 662 
0, 8422, 547 
0, 7838, 876 
0, 7031, 834 
0, 6578, 854 
0, 6005, 1156 
0, 5292, 1189 
0, 5005, 1241 
0, 3872, 872 
0, 3392, 953 
0, 3247, 357 
0, 3058, 676 
0, 3128, 856 
0, 2975, 429 
0, 3102, 664 
0, 3154, 1200 
0, 3169, 1490 
0, 3336, 1258 
0, 2473, 770 
0, 2341, 371 
0, 2217, 98 
0, 2043, 0 
0, 2178, 0 
0, 2127, 0 
0, 2072, 0 
0, 2384, 0 
0, 1554, 0 
0, 33, 38463 
