800, 0, 0 
1006, 0, 0 
833, 0, 0 
651, 0, 0 
1047, 0, 0 
4517, 0, 0 
148055, 0, 0 
175094, 0, 0 
74252, 0, 0 
49754, 0, 0 
44728, 0, 0 
46784, 21, 0 
51140, 10, 0 
55585, 241, 0 
76834, 1977, 0 
170280, 216, 0 
403204, 13151, 0 
398558, 15476, 0 
287063, 11564, 0 
315422, 54164, 0 
162994, 162009, 0 
99790, 83385, 0 
220298, 88327, 0 
119702, 43173, 0 
434, 26712, 0 
10938, 20350, 0 
140310, 15586, 0 
0, 26672, 0 
2, 21684, 0 
0, 20030, 0 
9049, 19708, 0 
0, 12664, 0 
227, 12226, 0 
0, 13308, 0 
0, 12858, 0 
119, 12342, 0 
0, 10949, 0 
0, 9904, 0 
0, 10382, 0 
0, 10225, 0 
0, 10482, 0 
0, 12206, 0 
0, 11207, 0 
0, 7968, 0 
0, 7116, 0 
0, 6949, 0 
0, 5270, 0 
0, 5775, 0 
0, 4479, 0 
0, 4127, 0 
0, 4206, 0 
0, 2973, 0 
0, 3385, 0 
0, 3387, 0 
0, 2784, 0 
0, 2822, 1 
0, 2913, 0 
0, 2922, 0 
0, 2895, 0 
0, 2629, 1 
0, 2782, 0 
0, 3063, 0 
0, 3369, 0 
0, 3779, 1 
0, 3198, 1 
0, 4196, 1 
0, 4203, 2 
0, 4617, 1 
0, 5648, 3 
0, 6384, 0 
0, 6784, 1 
0, 9512, 1 
0, 10165, 2 
0, 10216, 4 
0, 10828, 4 
0, 11362, 1 
0, 12412, 6 
0, 14322, 8 
0, 14523, 3 
0, 16209, 3 
0, 18988, 7 
0, 20482, 11 
0, 20001, 4 
0, 22880, 8 
0, 23262, 12 
0, 24883, 24 
0, 29029, 10 
0, 29859, 10 
0, 27225, 12 
0, 29247, 34 
0, 28135, 30 
0, 26256, 56 
0, 29121, 59 
0, 29302, 62 
0, 29626, 75 
0, 32435, 80 
0, 31207, 92 
0, 31478, 98 
0, 31932, 93 
0, 33577, 117 
0, 34154, 132 
0, 37370, 127 
0, 38376, 167 
0, 36786, 178 
0, 41438, 200 
0, 35119, 241 
0, 33311, 245 
0, 33690, 257 
0, 35911, 274 
0, 28103, 266 
0, 35419, 310 
0, 34010, 318 
0, 29692, 326 
0, 32682, 436 
0, 28230, 448 
0, 27743, 488 
0, 27009, 568 
0, 21525, 639 
0, 20623, 673 
0, 23786, 794 
0, 21573, 859 
0, 24775, 896 
0, 26297, 907 
0, 21262, 989 
0, 29622, 1056 
0, 25444, 1170 
0, 16558, 1183 
0, 18952, 1115 
0, 23435, 1241 
0, 13258, 1326 
0, 17044, 1345 
0, 19996, 1412 
0, 12887, 1327 
0, 14078, 1339 
0, 15406, 1409 
0, 12394, 1435 
0, 11526, 1399 
0, 11158, 1478 
0, 10678, 1525 
0, 9572, 1694 
0, 9562, 1800 
0, 9197, 2136 
0, 7673, 2349 
0, 8022, 2575 
0, 8151, 2875 
0, 6825, 3422 
0, 7416, 3817 
0, 7504, 4452 
0, 7042, 5511 
0, 7398, 6560 
0, 6509, 8053 
0, 6311, 10028 
0, 7564, 12156 
0, 5974, 14748 
0, 6860, 17178 
0, 7093, 18736 
0, 6571, 20819 
0, 6276, 25094 
0, 7431, 30363 
3, 6343, 37673 
7, 6759, 46818 
18, 6795, 57189 
21, 6451, 69915 
32, 6345, 85623 
74, 6960, 101355 
48, 6483, 120043 
131, 6489, 138954 
377, 7423, 153019 
80, 6852, 157064 
287, 7712, 155096 
608, 7570, 148743 
651, 8440, 141522 
479, 6989, 131117 
1023, 8216, 121509 
425, 8586, 114113 
635, 7353, 108365 
387, 9113, 105235 
455, 9795, 99422 
641, 9205, 90504 
664, 11267, 76466 
0, 11297, 63070 
0, 10905, 50004 
0, 12380, 39957 
0, 12672, 33698 
0, 10860, 29946 
0, 12476, 28501 
0, 10031, 29347 
0, 10306, 31724 
0, 11922, 35222 
0, 12227, 38056 
0, 10806, 41085 
0, 10922, 40464 
0, 12452, 35140 
0, 8906, 26089 
0, 12723, 17294 
0, 12586, 11664 
0, 8944, 8662 
0, 12229, 6650 
0, 9571, 4783 
0, 6862, 3508 
0, 6957, 2476 
0, 5039, 1802 
0, 3802, 1368 
0, 2112, 1132 
0, 1180, 915 
0, 974, 756 
0, 647, 651 
0, 288, 607 
0, 203, 567 
0, 117, 505 
0, 59, 551 
0, 35, 506 
0, 26, 460 
0, 24, 479 
0, 25, 476 
0, 29, 493 
0, 25, 409 
0, 21, 371 
0, 20, 320 
0, 16, 276 
0, 20, 216 
0, 13, 183 
0, 15, 155 
0, 10, 100 
0, 16, 103 
0, 14, 77 
0, 4, 54 
0, 11, 22 
0, 2, 24 
0, 1, 18 
0, 2, 7 
0, 2, 3 
0, 3, 3 
0, 1, 1 
0, 0, 7 
0, 0, 2 
0, 0, 1 
0, 0, 6 
0, 0, 0 
0, 1, 0 
0, 0, 1 
0, 0, 0 
0, 0, 2 
0, 0, 0 
0, 0, 0 
0, 0, 0 
0, 0, 0 
0, 0, 0 
0, 0, 0 
0, 0, 0 
0, 0, 0 
0, 0, 0 
0, 0, 0 
0, 0, 0 
0, 0, 0 
0, 2, 0 
